-------------------------------------------------------------------------------
Test set: org.apache.ctakes.core.ae.TokenizerAnnotatorPTBTests
-------------------------------------------------------------------------------
Tests run: 1, Failures: 0, Errors: 1, Skipped: 0, Time elapsed: 0.238 sec <<< FAILURE!
testTokenizerAnnotatorPTB(org.apache.ctakes.core.ae.TokenizerAnnotatorPTBTests)  Time elapsed: 0.219 sec  <<< ERROR!
org.apache.uima.resource.ResourceInitializationException: Initialization of annotator class "org.apache.ctakes.core.ae.SentenceDetector" failed.  (Descriptor: file:/Users/lusisi/i2b2/apache-ctakes-3.1.1-src/ctakes-core/desc/analysis_engine/SentenceDetectorAnnotator.xml)
	at org.apache.uima.analysis_engine.impl.PrimitiveAnalysisEngine_impl.initializeAnalysisComponent(PrimitiveAnalysisEngine_impl.java:252)
	at org.apache.uima.analysis_engine.impl.PrimitiveAnalysisEngine_impl.initialize(PrimitiveAnalysisEngine_impl.java:156)
	at org.apache.uima.impl.AnalysisEngineFactory_impl.produceResource(AnalysisEngineFactory_impl.java:94)
	at org.apache.uima.impl.CompositeResourceFactory_impl.produceResource(CompositeResourceFactory_impl.java:62)
	at org.apache.uima.UIMAFramework.produceResource(UIMAFramework.java:269)
	at org.apache.uima.UIMAFramework.produceAnalysisEngine(UIMAFramework.java:387)
	at org.apache.uima.analysis_engine.asb.impl.ASB_impl.setup(ASB_impl.java:254)
	at org.apache.uima.analysis_engine.impl.AggregateAnalysisEngine_impl.initASB(AggregateAnalysisEngine_impl.java:431)
	at org.apache.uima.analysis_engine.impl.AggregateAnalysisEngine_impl.initializeAggregateAnalysisEngine(AggregateAnalysisEngine_impl.java:375)
	at org.apache.uima.analysis_engine.impl.AggregateAnalysisEngine_impl.initialize(AggregateAnalysisEngine_impl.java:185)
	at org.apache.uima.impl.AnalysisEngineFactory_impl.produceResource(AnalysisEngineFactory_impl.java:94)
	at org.apache.uima.impl.CompositeResourceFactory_impl.produceResource(CompositeResourceFactory_impl.java:62)
	at org.apache.uima.UIMAFramework.produceResource(UIMAFramework.java:269)
	at org.apache.uima.UIMAFramework.produceAnalysisEngine(UIMAFramework.java:354)
	at org.apache.ctakes.utils.test.TestUtil.getAE(TestUtil.java:137)
	at org.apache.ctakes.core.ae.TokenizerAnnotatorPTBTests.testTokenizerAnnotatorPTB(TokenizerAnnotatorPTBTests.java:104)
	at org.apache.ctakes.core.ae.TokenizerAnnotatorPTBTests.testTokenizerAnnotatorPTB(TokenizerAnnotatorPTBTests.java:98)
	at sun.reflect.NativeMethodAccessorImpl.invoke0(Native Method)
	at sun.reflect.NativeMethodAccessorImpl.invoke(NativeMethodAccessorImpl.java:39)
	at sun.reflect.DelegatingMethodAccessorImpl.invoke(DelegatingMethodAccessorImpl.java:25)
	at java.lang.reflect.Method.invoke(Method.java:597)
	at org.junit.runners.model.FrameworkMethod$1.runReflectiveCall(FrameworkMethod.java:45)
	at org.junit.internal.runners.model.ReflectiveCallable.run(ReflectiveCallable.java:15)
	at org.junit.runners.model.FrameworkMethod.invokeExplosively(FrameworkMethod.java:42)
	at org.junit.internal.runners.statements.InvokeMethod.evaluate(InvokeMethod.java:20)
	at org.junit.runners.ParentRunner.runLeaf(ParentRunner.java:263)
	at org.junit.runners.BlockJUnit4ClassRunner.runChild(BlockJUnit4ClassRunner.java:68)
	at org.junit.runners.BlockJUnit4ClassRunner.runChild(BlockJUnit4ClassRunner.java:47)
	at org.junit.runners.ParentRunner$3.run(ParentRunner.java:231)
	at org.junit.runners.ParentRunner$1.schedule(ParentRunner.java:60)
	at org.junit.runners.ParentRunner.runChildren(ParentRunner.java:229)
	at org.junit.runners.ParentRunner.access$000(ParentRunner.java:50)
	at org.junit.runners.ParentRunner$2.evaluate(ParentRunner.java:222)
	at org.junit.runners.ParentRunner.run(ParentRunner.java:300)
	at org.apache.maven.surefire.junit4.JUnit4Provider.execute(JUnit4Provider.java:236)
	at org.apache.maven.surefire.junit4.JUnit4Provider.executeTestSet(JUnit4Provider.java:134)
	at org.apache.maven.surefire.junit4.JUnit4Provider.invoke(JUnit4Provider.java:113)
	at sun.reflect.NativeMethodAccessorImpl.invoke0(Native Method)
	at sun.reflect.NativeMethodAccessorImpl.invoke(NativeMethodAccessorImpl.java:39)
	at sun.reflect.DelegatingMethodAccessorImpl.invoke(DelegatingMethodAccessorImpl.java:25)
	at java.lang.reflect.Method.invoke(Method.java:597)
	at org.apache.maven.surefire.util.ReflectionUtils.invokeMethodWithArray(ReflectionUtils.java:189)
	at org.apache.maven.surefire.booter.ProviderFactory$ProviderProxy.invoke(ProviderFactory.java:165)
	at org.apache.maven.surefire.booter.ProviderFactory.invokeProvider(ProviderFactory.java:85)
	at org.apache.maven.surefire.booter.ForkedBooter.runSuitesInProcess(ForkedBooter.java:103)
	at org.apache.maven.surefire.booter.ForkedBooter.main(ForkedBooter.java:74)
Caused by: org.apache.uima.resource.ResourceInitializationException
	at org.apache.ctakes.core.ae.SentenceDetector.initialize(SentenceDetector.java:88)
	at org.apache.uima.analysis_engine.impl.PrimitiveAnalysisEngine_impl.initializeAnalysisComponent(PrimitiveAnalysisEngine_impl.java:250)
	... 45 more
Caused by: java.io.FileNotFoundException: org/apache/ctakes/core/sentdetect/sd-med-model.zip (No such file or directory)
	at java.io.FileInputStream.open(Native Method)
	at java.io.FileInputStream.<init>(FileInputStream.java:120)
	at org.apache.ctakes.core.resource.FileLocator.getAsStream(FileLocator.java:50)
	at org.apache.ctakes.core.ae.SentenceDetector.configInit(SentenceDetector.java:103)
	at org.apache.ctakes.core.ae.SentenceDetector.initialize(SentenceDetector.java:86)
	... 46 more
